<?xml version="1.0" encoding="UTF-8" standalone="no"?>
<!DOCTYPE svg PUBLIC "-//W3C//DTD SVG 1.1//EN" "http://www.w3.org/Graphics/SVG/1.1/DTD/svg11.dtd">
<svg width="100%" height="100%" viewBox="0 0 32 32" version="1.1" xmlns="http://www.w3.org/2000/svg" xmlns:xlink="http://www.w3.org/1999/xlink" xml:space="preserve" xmlns:serif="http://www.serif.com/" style="fill-rule:evenodd;clip-rule:evenodd;stroke-linejoin:round;stroke-miterlimit:2;">
    <g transform="matrix(1,0,0,1,-2272,-1184)">
        <g transform="matrix(1,0,0,1,2288,1200)">
            <g transform="matrix(1,0,0,1,-16,-16)">
                <clipPath id="_clip1">
                    <rect x="0" y="0" width="32" height="32"/>
                </clipPath>
                <g clip-path="url(#_clip1)">
                    <g id="rect4136" transform="matrix(1,0,0,1,0,-1020.36)">
                        <rect x="-1" y="1019.36" width="34" height="34" style="fill:rgb(34,34,34);"/>
                    </g>
                </g>
            </g>
        </g>
    </g>
</svg>
