<?xml version="1.0" encoding="UTF-8" standalone="no"?>
<!DOCTYPE svg PUBLIC "-//W3C//DTD SVG 1.1//EN" "http://www.w3.org/Graphics/SVG/1.1/DTD/svg11.dtd">
<svg width="100%" height="100%" viewBox="0 0 48 48" version="1.1" xmlns="http://www.w3.org/2000/svg" xmlns:xlink="http://www.w3.org/1999/xlink" xml:space="preserve" xmlns:serif="http://www.serif.com/" style="fill-rule:evenodd;clip-rule:evenodd;stroke-linejoin:round;stroke-miterlimit:2;">
    <g transform="matrix(1,0,0,1,-2368,-1296)">
        <g transform="matrix(1,0,0,1,2392,1320)">
            <g transform="matrix(1,0,0,1,-24,-24)">
                <g id="Layer-1" serif:id="Layer 1" transform="matrix(1,0,0,1,0,-1004.36)">
                    <g id="path4138" transform="matrix(1,0,0,1,0,1004.36)">
                        <path d="M24,13C17.966,13 13,17.966 13,24C13,30.034 17.966,35 24,35C30.034,35 35,30.034 35,24C35,17.966 30.034,13 24,13ZM24,17C27.84,17 31,20.16 31,24C31,27.84 27.84,31 24,31C20.16,31 17,27.84 17,24C17,20.16 20.16,17 24,17Z" style="fill:rgb(128,140,153);fill-rule:nonzero;"/>
                    </g>
                    <path id="rect4157" d="M26,1027.86C26,1027.59 25.776,1027.36 25.5,1027.36L22.5,1027.36C22.224,1027.36 22,1027.59 22,1027.86L22,1032.86C22,1033.14 22.224,1033.36 22.5,1033.36L25.5,1033.36C25.776,1033.36 26,1033.14 26,1032.86L26,1027.86Z" style="fill:rgb(128,140,153);"/>
                    <circle id="path4159" cx="24" cy="1024.36" r="2" style="fill:rgb(128,140,153);"/>
                </g>
            </g>
        </g>
    </g>
</svg>
