<?xml version="1.0" encoding="UTF-8" standalone="no"?>
<!DOCTYPE svg PUBLIC "-//W3C//DTD SVG 1.1//EN" "http://www.w3.org/Graphics/SVG/1.1/DTD/svg11.dtd">
<svg width="100%" height="100%" viewBox="0 0 128 128" version="1.1" xmlns="http://www.w3.org/2000/svg" xmlns:xlink="http://www.w3.org/1999/xlink" xml:space="preserve" xmlns:serif="http://www.serif.com/" style="fill-rule:evenodd;clip-rule:evenodd;stroke-linecap:round;stroke-linejoin:round;">
    <g transform="matrix(1,0,0,1,-128,-128)">
        <g transform="matrix(1,0,0,1,192,192)">
            <g transform="matrix(1,0,0,1,-64,-64)">
                <g id="Layer-1" serif:id="Layer 1" transform="matrix(1,0,0,1,0,-924.362)">
                    <g id="rect4137" transform="matrix(0.707107,0.707107,-0.707107,0.707107,0,0)">
                        <path d="M742.132,621.623C742.132,620.519 741.236,619.623 740.132,619.623L712.132,619.623C711.029,619.623 710.132,620.519 710.132,621.623L710.132,649.623C710.132,650.727 711.029,651.623 712.132,651.623L740.132,651.623C741.236,651.623 742.132,650.727 742.132,649.623L742.132,621.623Z" style="fill:rgb(242,242,242);stroke:rgb(179,179,190);stroke-width:1px;"/>
                    </g>
                    <g id="rect4137-2" transform="matrix(0.707107,0.707107,-0.707107,0.707107,0,0)">
                        <path d="M778.132,621.623C778.132,620.519 777.236,619.623 776.132,619.623L748.132,619.623C747.029,619.623 746.132,620.519 746.132,621.623L746.132,649.623C746.132,650.727 747.029,651.623 748.132,651.623L776.132,651.623C777.236,651.623 778.132,650.727 778.132,649.623L778.132,621.623Z" style="fill:rgb(242,242,242);stroke:rgb(179,179,190);stroke-width:1px;"/>
                    </g>
                    <g id="rect4137-0" transform="matrix(0.707107,0.707107,-0.707107,0.707107,0,0)">
                        <path d="M742.132,657.623C742.132,656.519 741.236,655.623 740.132,655.623L712.132,655.623C711.029,655.623 710.132,656.519 710.132,657.623L710.132,685.623C710.132,686.727 711.029,687.623 712.132,687.623L740.132,687.623C741.236,687.623 742.132,686.727 742.132,685.623L742.132,657.623Z" style="fill:rgb(242,242,242);stroke:rgb(179,179,190);stroke-width:1px;"/>
                    </g>
                    <g id="rect4137-2-4" transform="matrix(0.707107,0.707107,-0.707107,0.707107,0,0)">
                        <path d="M778.132,657.623C778.132,656.519 777.236,655.623 776.132,655.623L748.132,655.623C747.029,655.623 746.132,656.519 746.132,657.623L746.132,685.623C746.132,686.727 747.029,687.623 748.132,687.623L776.132,687.623C777.236,687.623 778.132,686.727 778.132,685.623L778.132,657.623Z" style="fill:rgb(242,242,242);stroke:rgb(179,179,190);stroke-width:1px;"/>
                    </g>
                </g>
            </g>
        </g>
    </g>
</svg>
