<?xml version="1.0" encoding="UTF-8" standalone="no"?>
<!DOCTYPE svg PUBLIC "-//W3C//DTD SVG 1.1//EN" "http://www.w3.org/Graphics/SVG/1.1/DTD/svg11.dtd">
<svg width="100%" height="100%" viewBox="0 0 128 128" version="1.1" xmlns="http://www.w3.org/2000/svg" xmlns:xlink="http://www.w3.org/1999/xlink" xml:space="preserve" xmlns:serif="http://www.serif.com/" style="fill-rule:evenodd;clip-rule:evenodd;stroke-linejoin:round;stroke-miterlimit:2;">
    <g transform="matrix(1,0,0,1,-1024,-640)">
        <g transform="matrix(1,0,0,1,1088,704)">
            <g transform="matrix(1,0,0,1,-64,-64)">
                <g id="path4715" transform="matrix(1,0,0,1,0,-924.362)">
                    <circle cx="64" cy="988.362" r="46" style="fill:rgb(66,145,206);"/>
                </g>
                <path id="path10-7" d="M93.2,34.8C84.6,26.2 73.2,22.2 62,22.8C48.8,28.9 44.5,56.8 47.7,76.3L47.9,76.3C70.4,79 101.5,76.4 105.3,65.3C105.6,54.3 101.6,43.2 93.2,34.8Z" style="fill:rgb(233,69,90);fill-rule:nonzero;"/>
                <path id="path12-4" d="M82.4,45.4C78,41.1 72.2,39 66.5,39.3C59.8,42.4 57.6,56.5 59.2,66.4L59.3,66.4C70.7,67.8 86.5,66.4 88.4,60.8C88.7,55.3 86.6,49.7 82.4,45.4Z" style="fill:rgb(242,242,242);fill-rule:nonzero;"/>
            </g>
        </g>
    </g>
</svg>
