<?xml version="1.0" encoding="UTF-8" standalone="no"?>
<!DOCTYPE svg PUBLIC "-//W3C//DTD SVG 1.1//EN" "http://www.w3.org/Graphics/SVG/1.1/DTD/svg11.dtd">
<svg width="100%" height="100%" viewBox="0 0 128 128" version="1.1" xmlns="http://www.w3.org/2000/svg" xmlns:xlink="http://www.w3.org/1999/xlink" xml:space="preserve" xmlns:serif="http://www.serif.com/" style="fill-rule:evenodd;clip-rule:evenodd;stroke-linejoin:round;stroke-miterlimit:2;">
    <g transform="matrix(1,0,0,1,-1024,-256)">
        <g transform="matrix(1,0,0,1,1088,320)">
            <g transform="matrix(1,0,0,1,-64,-64)">
                <g id="path4691" transform="matrix(0,1,-1,0,0,-924.362)">
                    <circle cx="988.362" cy="-64" r="46" style="fill:rgb(0,140,255);"/>
                </g>
                <path id="path17" d="M97.9,37.3C97.4,37.2 97,37.2 96.5,37.1C93.3,36.7 87.8,36.7 82.1,37.3C76.782,38.121 67.831,39.436 64.663,44.103C64.01,47.985 63.609,49.514 62.5,52.1C61.384,54.526 59.8,56.9 57.3,58.3C57.1,57.3 57.1,56.5 57.1,56.1C56.8,50.3 60.1,45.1 65.5,39.2C70.9,33.4 75.8,29.7 82.6,25.2C76.9,22.5 70.6,20.9 63.8,20.9C62.5,20.9 61.2,21 59.9,21.1C56.9,27.6 54,35.3 51.7,43.7C50.1,49.5 48.3,58 52.6,64.7C53.4,65.9 56.4,70.6 61.4,71C65.4,71.3 68.5,68.8 69.3,68.1C72,65.9 72.9,63.3 73.8,60.9C75.5,56.3 75.2,52.8 74.5,46C74.4,45.1 74.3,44.3 74.2,43.6C75.1,43.7 75.9,43.8 76.8,44.1C77,45 77.3,46 77.5,47.3C78.1,50.1 78.6,52.9 78.6,56.3C78.6,59.7 78.5,63.7 76.3,67.8C75.5,69.2 72.2,74.6 65.7,76.2C59.4,77.8 54.2,74.9 51.7,73.5C45.2,69.9 42.3,64.6 38.8,58.2C38.8,58.2 33.4,48.4 31.3,35.7C24.9,43.3 20.9,53.2 20.9,64C20.9,70.6 22.4,76.8 25,82.3C30.2,83.9 40.8,86.6 53.8,85.8C67.7,85 73.2,80.9 75,79.5C76.6,78.2 81.1,74.6 83.1,68.5C85.9,60 82.4,50.5 79.4,44.8C82.6,46.4 84.7,49.1 85.5,50.1C87.7,53 88.5,55.8 89.3,58.5C90.9,64.1 90.7,69.1 90.4,72.3C90,75 89.4,79.3 87,84C84.5,89 80.6,93 74.2,97.3C67.9,101.5 61.4,104.4 55.9,106.3C58.5,106.8 61.2,107.1 64,107.1C87.8,107.1 107.1,87.8 107.1,64C107.1,53.9 103.7,44.7 97.9,37.3ZM71.5,52.8C71.5,54.2 71.4,56.8 70.1,59.6C69.3,61.4 68.4,63.4 66.1,64.5C65.8,64.6 63.4,65.7 61.1,64.7C59.9,64.2 59.1,63.2 58.5,62.1C60.5,61.3 62.1,60.116 63.9,58C67.474,53.799 68.484,47.289 68,44.2C68.9,44 69.8,43.8 70.9,43.6C71.587,46.809 71.581,50.104 71.5,52.8Z" style="fill:rgb(242,242,242);fill-rule:nonzero;"/>
            </g>
        </g>
    </g>
</svg>
