<?xml version="1.0" encoding="UTF-8" standalone="no"?>
<!DOCTYPE svg PUBLIC "-//W3C//DTD SVG 1.1//EN" "http://www.w3.org/Graphics/SVG/1.1/DTD/svg11.dtd">
<svg width="100%" height="100%" viewBox="0 0 128 128" version="1.1" xmlns="http://www.w3.org/2000/svg" xmlns:xlink="http://www.w3.org/1999/xlink" xml:space="preserve" xmlns:serif="http://www.serif.com/" style="fill-rule:evenodd;clip-rule:evenodd;stroke-linejoin:round;stroke-miterlimit:2;">
    <g transform="matrix(1,0,0,1,-768,-128)">
        <g transform="matrix(1,0,0,1,832,192)">
            <g transform="matrix(1,0,0,1,-64,-64)">
                <g id="path4732" transform="matrix(1,0,0,1,0,-924.362)">
                    <circle cx="64" cy="988.362" r="46" style="fill:rgb(0,125,197);"/>
                </g>
                <g id="g11-2">
                    <circle id="circle13-7" cx="64" cy="64" r="38.8" style="fill:rgb(242,242,242);fill-opacity:0;"/>
                    <g id="g15-1">
                        <path id="path17-0" d="M44.2,64C44.2,57.4 47.5,51.5 52.5,47.9L40,34.6L34.5,40.1L40.5,47.3C38,50.8 36.3,54.9 35.5,59.3L26.1,60.1L26.1,67.9L35.5,68.7C36.2,73.1 38,77.2 40.5,80.7L34.5,87.9L40,93.4L52.5,80.1C47.5,76.5 44.2,70.6 44.2,64Z" style="fill:rgb(242,242,242);fill-rule:nonzero;"/>
                        <path id="path19-9" d="M61.2,92.6C62.1,92.7 63,92.7 64,92.7C67.5,92.7 70.9,92.1 74.1,90.9L79.5,98.6L86.3,94.7L82.3,86.2C85.6,83.4 88.4,79.9 90.2,75.9L99.5,77.5L101.5,70L83.7,65.8C82.8,75.8 74.3,83.7 64,83.7C61.1,83.7 58.3,83.1 55.8,81.9L50.6,99.4L58.1,101.4L61.2,92.6Z" style="fill:rgb(242,242,242);fill-rule:nonzero;"/>
                        <path id="path21-0" d="M64,44.2C74.3,44.2 82.7,52.1 83.7,62.1L101.5,57.9L99.5,50.4L90.2,52C88.4,48 85.7,44.5 82.3,41.7L86.3,33.2L79.5,29.3L74.1,37C71,35.8 67.6,35.2 64,35.2C63.1,35.2 62.2,35.3 61.2,35.3L58,26.5L50.5,28.5L55.8,46C58.3,44.9 61.1,44.2 64,44.2Z" style="fill:rgb(242,242,242);fill-rule:nonzero;"/>
                    </g>
                </g>
            </g>
        </g>
    </g>
</svg>
