<?xml version="1.0" encoding="UTF-8" standalone="no"?>
<!DOCTYPE svg PUBLIC "-//W3C//DTD SVG 1.1//EN" "http://www.w3.org/Graphics/SVG/1.1/DTD/svg11.dtd">
<svg width="100%" height="100%" viewBox="0 0 128 128" version="1.1" xmlns="http://www.w3.org/2000/svg" xmlns:xlink="http://www.w3.org/1999/xlink" xml:space="preserve" xmlns:serif="http://www.serif.com/" style="fill-rule:evenodd;clip-rule:evenodd;stroke-linejoin:round;stroke-miterlimit:2;">
    <g transform="matrix(1,0,0,1,-512,-640)">
        <g transform="matrix(1,0,0,1,576,704)">
            <g transform="matrix(1,0,0,1,-64,-64)">
                <g id="Layer-1" serif:id="Layer 1" transform="matrix(1,0,0,1,0,-924.362)">
                    <path id="path4226" d="M97.57,995.752C97.56,985.857 93.455,976.416 86.19,969.821C84.384,968.181 81.55,968.202 79.769,969.867C76.056,973.336 70.219,975.557 64,975.558C57.79,975.55 51.964,973.327 48.259,969.862C46.479,968.198 43.648,968.175 41.841,969.81C34.562,976.402 30.446,985.847 30.43,995.75C30.43,995.753 30.43,995.756 30.43,995.76C30.43,1014.67 45.359,1030.36 64,1030.36C82.641,1030.36 97.57,1014.67 97.57,995.76C97.57,995.756 97.57,995.753 97.57,995.75L97.57,995.752ZM88.2,995.762C88.2,1010.01 77.265,1021.2 64,1021.2C50.737,1021.2 39.803,1010.01 39.8,995.769C39.809,989.687 41.986,983.948 45.653,979.413C50.896,982.842 57.301,984.725 63.995,984.732C63.997,984.732 63.999,984.732 64.001,984.732C70.703,984.732 77.118,982.851 82.369,979.42C86.025,983.955 88.195,989.689 88.202,995.762L88.2,995.762Z" style="fill:rgb(45,56,82);fill-rule:nonzero;"/>
                    <g id="path4241" transform="matrix(0,1,-1,0,0,0)">
                        <circle cx="963.866" cy="-56.544" r="6.5" style="fill:rgb(1,164,244);"/>
                    </g>
                    <g id="path4243" transform="matrix(0,1,-1,0,0,0)">
                        <circle cx="960.386" cy="-74.268" r="6" style="fill:rgb(1,164,244);"/>
                    </g>
                    <g id="path4245" transform="matrix(0,1,-1,0,0,0)">
                        <circle cx="951.654" cy="-63.097" r="5.5" style="fill:rgb(1,164,244);"/>
                    </g>
                    <g id="path4247" transform="matrix(0,1,-1,0,0,0)">
                        <circle cx="942.922" cy="-72.908" r="5" style="fill:rgb(1,164,244);"/>
                    </g>
                    <g id="path4249" transform="matrix(0,1,-1,0,0,0)">
                        <circle cx="936.588" cy="-60.778" r="4.5" style="fill:rgb(1,164,244);"/>
                    </g>
                </g>
            </g>
        </g>
    </g>
</svg>
