<?xml version="1.0" encoding="UTF-8" standalone="no"?>
<!DOCTYPE svg PUBLIC "-//W3C//DTD SVG 1.1//EN" "http://www.w3.org/Graphics/SVG/1.1/DTD/svg11.dtd">
<svg width="100%" height="100%" viewBox="0 0 128 128" version="1.1" xmlns="http://www.w3.org/2000/svg" xmlns:xlink="http://www.w3.org/1999/xlink" xml:space="preserve" xmlns:serif="http://www.serif.com/" style="fill-rule:evenodd;clip-rule:evenodd;stroke-linejoin:round;stroke-miterlimit:2;">
    <g transform="matrix(1,0,0,1,-256,-512)">
        <g transform="matrix(1,0,0,1,320,576)">
            <g transform="matrix(1,0,0,1,-64,-64)">
                <g id="Layer-1" serif:id="Layer 1" transform="matrix(1,0,0,1,0,-924.362)">
                    <g id="path4283" transform="matrix(0,1,-1,0,0,0)">
                        <circle cx="988.362" cy="-64" r="46" style="fill:rgb(0,140,255);"/>
                    </g>
                    <path id="path4221" d="M92.129,979.647C89.146,979.571 87.506,983.201 91.845,982.732C91.586,986.339 87.385,992.292 85.79,992.49C83.82,992.399 88.664,983.835 88.611,983.504C88.237,982.76 87.701,982.432 86.907,982.226C86.312,982.516 80.67,992.238 83.765,993.293C86.95,994.379 90.93,991.175 92.441,988.218C93.363,986.415 94.385,984.189 94.531,982.445C94.804,982.395 95.055,982.336 95.28,982.271C95.264,982.337 95.249,982.404 95.24,982.471C94.845,985.282 96.308,986.536 96.192,988.231C96.076,989.927 95.263,991.344 94.427,991.367C93.73,991.414 93.219,990.833 92.777,990.764C92.336,990.694 91.105,990.786 91.059,991.019C91.012,991.251 92.197,992.203 93.382,992.296C94.566,992.389 99.038,992.529 99.258,988.951C99.444,985.932 97.529,984.707 97.911,983.052C98.376,981.034 100.046,981.102 100.716,981.325C100.878,981.379 101,981.286 101,981.286C101,980.311 99.142,979.8 97.958,980.033C97.007,980.219 95.944,980.886 95.472,981.777C95.18,981.816 94.867,981.842 94.546,981.85C94.506,981.007 94.198,980.323 93.477,979.93C93.009,979.745 92.556,979.658 92.129,979.647L92.129,979.647ZM44.096,980.09C40.68,980.027 36.37,981.116 32.623,983.397C27.005,986.817 24.134,993.976 31.085,994.55C31.085,994.55 31.038,994.11 30.665,993.715C30.195,993.215 29.011,993.397 29.181,991.423C29.301,990.027 31.781,987.095 35.449,985.19C40.548,982.543 48.706,981.075 48.525,983.72C48.322,986.699 40.702,988.836 40.702,988.836C40.702,988.836 41.827,986.457 41.92,986.085C42.013,985.713 41.375,983.888 40.539,983.957C38.833,986.658 33.315,995.804 33.129,998.73C33.129,999.938 34.942,1001.75 35.313,1001.84C35.685,1001.94 39.03,992.134 39.03,992.134C39.5,994.696 40.991,999.098 44.697,999.427C45.263,999.427 46.377,998.567 47.164,997.893C49.098,999.123 53.042,998.264 55.306,995.314C55.306,995.314 55.602,995.938 55.963,996.332C56.325,996.727 56.916,997.384 57.146,997.318C57.267,997.284 58.239,994.562 59.404,992.03C60.446,989.767 61.701,987.72 61.932,987.618C62.156,987.52 62.73,987.627 62.566,988.055C61.876,990.278 60.232,993.072 60.171,994.178C60.122,995.082 60.708,995.49 61.518,996.095C62.885,992.564 64.831,987.8 65.485,987.348C65.643,987.239 66.204,986.965 66.252,987.326C66.096,989.198 62.897,993.871 64.964,995.446C65.391,995.741 65.916,996.299 66.902,995.511C67.887,994.723 68.544,993.376 68.478,993.803C68.413,994.23 68.935,995.142 69.99,995.15C71.28,995.161 72.289,994.001 72.289,994.001C72.289,994.001 72.946,994.395 73.406,994.329C73.866,994.263 75.935,991.537 75.935,991.537C77.383,994.131 78.864,994.015 79.736,993.575C81.257,992.808 81.271,991.35 81.178,991.511C80.915,992.037 79.849,992.435 79.417,992.358C78.34,992.166 77.55,989.898 77.55,989.898C77.55,989.898 80.862,986.084 80.895,985.821C80.928,985.558 80.074,984.31 79.812,984.343C79.549,984.376 76.754,987.742 76.754,987.742C76.377,986.656 76.118,985.978 76.024,985.092C75.86,985.125 74.246,986.257 74.227,986.989C74.206,987.813 74.941,989.635 74.941,989.635C74.37,990.492 72.311,992.891 71.22,993.672C70.734,994.02 70.342,993.862 70.591,992.905C71.114,991.038 72.807,988.181 72.78,987.226C72.765,986.696 72.338,985.548 71.409,985.463C70.804,985.448 69.293,989.547 68.826,990.862C68.07,992.921 67.067,994.595 66.51,994.255C66.148,994.025 69.033,987.152 68.917,986.456C68.797,985.739 67.937,985.364 67.275,985.421C66.13,985.519 64.838,986.538 64.838,986.538C64.496,986.034 64.179,985.702 63.744,985.646C62.612,985.499 61.308,986.585 60.562,987.431C60.562,987.431 60.004,986.412 59.642,986.215C59.281,986.018 58.854,986.773 58.854,986.773C57.903,988.675 56.745,992.398 54.689,994.467C51.944,997.23 48.608,997.324 48.835,994.526C51.453,994.023 53.398,993.206 55.052,992.039C57.451,990.346 57.264,987.349 54.454,986.765C48.863,986.046 44.444,993.875 46.58,997.327C45.121,997.642 44.589,997.198 44,996.314C42.885,994.642 42.188,991.251 42.188,991.251C49.68,988.115 50.727,984.906 50.048,982.914C49.428,981.096 47.11,980.145 44.096,980.09L44.096,980.09ZM91.108,980.51C91.664,980.482 92.342,981.079 92.046,981.821C90.571,981.868 90.105,981.234 90.757,980.636C90.858,980.557 90.98,980.517 91.108,980.51ZM73.723,982.457C73.313,982.48 72.9,982.771 72.653,983.213C72.292,983.861 72.396,984.624 72.887,984.917C73.378,985.21 74.069,984.922 74.43,984.274C74.792,983.626 74.687,982.863 74.197,982.57C74.057,982.486 73.894,982.448 73.723,982.457ZM53.916,988.35C54.952,988.336 55.208,989.224 54.632,990.055C53.663,991.382 50.427,992.515 49.405,992.309C50.203,990.132 51.846,988.779 53.425,988.415C53.604,988.373 53.768,988.352 53.916,988.35L53.916,988.35ZM87.714,996.269C87.249,996.269 78.328,996.75 67.464,998.508C54.071,1000.67 46.263,1002.74 46.1,1003.37C46.102,1003.8 47.013,1005.05 49.13,1005.19C53.869,1004.91 55.195,1003.24 68.76,1000.63C85.587,997.322 89.15,997.71 89.331,997.383C89.303,996.786 88.33,996.3 87.714,996.269Z" style="fill:rgb(241,242,242);"/>
                </g>
            </g>
        </g>
    </g>
</svg>
