<?xml version="1.0" encoding="UTF-8" standalone="no"?>
<!DOCTYPE svg PUBLIC "-//W3C//DTD SVG 1.1//EN" "http://www.w3.org/Graphics/SVG/1.1/DTD/svg11.dtd">
<svg width="100%" height="100%" viewBox="0 0 128 128" version="1.1" xmlns="http://www.w3.org/2000/svg" xmlns:xlink="http://www.w3.org/1999/xlink" xml:space="preserve" xmlns:serif="http://www.serif.com/" style="fill-rule:evenodd;clip-rule:evenodd;stroke-linejoin:round;stroke-miterlimit:2;">
    <g transform="matrix(1,0,0,1,0,-512)">
        <g transform="matrix(1,0,0,1,64,576)">
            <g transform="matrix(1,0,0,1,-64,-64)">
                <g id="path3813-1" transform="matrix(1,0,0,-1,0,-924.362)">
                    <circle cx="64" cy="-988.362" r="46" style="fill:rgb(0,170,255);"/>
                </g>
                <g id="Layer-2" serif:id="Layer 2">
                    <g id="path3862" transform="matrix(1,0,0,-1,0,0)">
                        <circle cx="64" cy="-64" r="42" style="fill:rgb(51,51,61);"/>
                    </g>
                    <path id="path3862-8" d="M64,106C40.959,106 22,87.041 22,64L22,64L106,64L106,64C106,87.041 87.041,106 64,106Z" style="fill:rgb(45,45,53);fill-rule:nonzero;"/>
                </g>
                <g id="Layer-3" serif:id="Layer 3">
                    <path id="path15-8" d="M65.6,93.8C66.8,93.4 67.4,92.8 68.4,91.9C68.6,91.8 70.3,90.6 73.7,88.3C79.4,84.4 81,84.4 84.7,81.3C85.9,80.3 86.8,79.3 88.4,77.3C89.5,75.9 90,75.2 90,74.3C90,73.1 89.2,71.9 88.1,71.3C86.8,70.6 85.4,71 84.5,71.3C81.2,72.3 80.8,74.7 76.4,77.2C75.6,77.6 74.8,78.1 73.6,78.3C73.2,78.4 70.8,78.8 69.4,77.8C67.9,76.7 68.1,74.1 68.3,70.8C68.3,70.8 68.8,62.8 68.1,54.3C67.8,49.9 67.2,47.7 65.5,46.7C64.6,46.2 63.3,46 62.2,46.4C59.1,47.6 58.8,53.7 58.5,59.9C58,69.9 57.7,75 58.2,76.7C58.3,77 58.6,78 58,78.7C57.6,79.3 56.7,79.3 56,79.3C53.4,79.3 51.2,78.1 47.4,76C44.6,74.5 44.5,74.4 44,74.3C43.5,74.1 38.8,72.8 36.8,75.1C36.7,75.2 36,76.1 36,77.3C36.1,78.4 36.8,79.2 38.6,80.7C40.6,82.3 42.1,83.2 43,83.7C46.3,85.7 45.8,86.3 50.6,89.8C54,92.2 55.4,92.7 56,92.9C56.9,93.2 58.3,93.4 61,93.7C63.9,94.2 64.7,94.1 65.6,93.8Z" style="fill:rgb(242,242,242);fill-rule:nonzero;"/>
                    <path id="path17-4" d="M36.8,72.7C36.8,72.1 36.3,71.7 35.4,70.8C34.7,70.2 33.8,69.4 32.3,68.9C31.6,68.7 30.1,68.3 29.7,68.9C29.4,69.3 29.8,70.2 30.6,72C31.4,73.8 31.7,74.1 32,74.3C32.2,74.5 33.1,75.2 34.2,75.1C35.5,75.1 36.9,73.8 36.8,72.7Z" style="fill:rgb(242,242,242);fill-rule:nonzero;"/>
                    <path id="path19-7" d="M91.3,71.7C92.4,72.5 93.7,72.1 93.9,72C94.2,71.9 94.6,71.7 96.4,70C98.1,68.3 98.3,67.9 98.4,67.4C98.4,67.2 98.5,66.2 97.9,65.7C97.6,65.5 97.2,65.3 96,65.4C95.2,65.5 92.5,65.8 90.9,68C90.5,68.6 90,69.3 90.1,70.2C90.3,71.1 91.1,71.6 91.3,71.7Z" style="fill:rgb(242,242,242);fill-rule:nonzero;"/>
                    <path id="path21-4" d="M63.7,44.5C64.8,44.6 65.6,43.3 65.6,43.2C66,42.4 65.9,41.9 65.7,39.6C65.6,37.2 65.6,36.3 65,35C64.6,34.2 64.3,34 64,33.9C63.3,33.8 62.8,34.6 62.6,34.8C61.8,35.9 62.1,36.7 61.9,39.4C61.7,41.5 61.4,42 61.8,42.9C62,43.2 62.6,44.5 63.7,44.5Z" style="fill:rgb(242,242,242);fill-rule:nonzero;"/>
                </g>
            </g>
        </g>
    </g>
</svg>
