<?xml version="1.0" encoding="UTF-8" standalone="no"?>
<!DOCTYPE svg PUBLIC "-//W3C//DTD SVG 1.1//EN" "http://www.w3.org/Graphics/SVG/1.1/DTD/svg11.dtd">
<svg width="100%" height="100%" viewBox="0 0 128 128" version="1.1" xmlns="http://www.w3.org/2000/svg" xmlns:xlink="http://www.w3.org/1999/xlink" xml:space="preserve" xmlns:serif="http://www.serif.com/" style="fill-rule:evenodd;clip-rule:evenodd;stroke-linejoin:round;stroke-miterlimit:2;">
    <g transform="matrix(1,0,0,1,-128,-384)">
        <g transform="matrix(1,0,0,1,192,448)">
            <g transform="matrix(1,0,0,1,-64,-64)">
                <path id="path4167" d="M64,18C39.063,18.017 18.448,38.309 18.037,63.242C24.31,67.999 25.429,74.958 21.088,80.551C27.915,98.254 45.026,109.997 64,110C89.235,110 110,89.235 110,64C110,38.765 89.235,18 64,18Z" style="fill:rgb(45,56,82);fill-rule:nonzero;"/>
                <path id="rect4339" d="M77.977,30.805C72.707,30.728 67.625,32.789 63.898,36.516C60.245,40.176 58.192,45.143 58.197,50.314L44.785,69.482C42.215,69.464 39.689,70.162 37.492,71.496L18.078,62.443C18.043,62.962 18.017,63.481 18,64C18.004,69.788 19.101,75.525 21.232,80.906L30.98,85.451C31.425,88.36 32.785,91.054 34.861,93.139C37.46,95.737 40.987,97.199 44.662,97.199C48.337,97.199 51.865,95.737 54.463,93.139C57.091,90.509 58.554,86.93 58.52,83.213L77.687,69.803C82.859,69.807 87.825,67.755 91.484,64.102C95.141,60.445 97.198,55.48 97.198,50.309C97.198,45.137 95.141,40.172 91.484,36.516C87.897,32.929 83.049,30.879 77.977,30.805ZM77.879,37.477C81.216,37.525 84.406,38.874 86.766,41.234C89.171,43.64 90.524,46.906 90.524,50.309C90.524,53.711 89.171,56.977 86.766,59.383C84.36,61.789 81.094,63.142 77.691,63.142C74.289,63.142 71.023,61.789 68.617,59.383C66.211,56.977 64.858,53.711 64.858,50.309C64.858,46.906 66.211,43.64 68.617,41.234C71.069,38.783 74.412,37.426 77.879,37.477ZM77.834,40.557C75.199,40.518 72.658,41.549 70.795,43.412C68.966,45.24 67.938,47.723 67.938,50.309C67.938,52.894 68.966,55.377 70.795,57.205C72.623,59.033 75.106,60.062 77.691,60.062C80.277,60.062 82.76,59.033 84.588,57.205C86.416,55.377 87.445,52.894 87.445,50.309C87.445,47.723 86.416,45.24 84.588,43.412C82.794,41.619 80.37,40.594 77.834,40.557ZM44.811,73.072C44.811,73.072 44.812,73.072 44.813,73.072C47.482,73.111 50.034,74.19 51.922,76.078C53.847,78.003 54.929,80.616 54.929,83.338C54.929,86.06 53.847,88.673 51.922,90.598C49.997,92.522 47.384,93.605 44.662,93.605C41.94,93.605 39.327,92.522 37.402,90.598C36.5,89.69 35.775,88.623 35.266,87.449L41.402,90.311C45.268,92.113 49.832,90.452 51.635,86.586C53.438,82.72 51.776,78.156 47.91,76.354L41.766,73.488C42.754,73.198 43.78,73.057 44.811,73.072L44.811,73.072Z" style="fill:rgb(242,242,242);fill-rule:nonzero;"/>
            </g>
        </g>
    </g>
</svg>
