<?xml version="1.0" encoding="UTF-8" standalone="no"?>
<!DOCTYPE svg PUBLIC "-//W3C//DTD SVG 1.1//EN" "http://www.w3.org/Graphics/SVG/1.1/DTD/svg11.dtd">
<svg width="100%" height="100%" viewBox="0 0 128 128" version="1.1" xmlns="http://www.w3.org/2000/svg" xmlns:xlink="http://www.w3.org/1999/xlink" xml:space="preserve" xmlns:serif="http://www.serif.com/" style="fill-rule:evenodd;clip-rule:evenodd;stroke-linejoin:round;stroke-miterlimit:2;">
    <g transform="matrix(1,0,0,1,-256,-128)">
        <g transform="matrix(1,0,0,1,320,192)">
            <g transform="matrix(1,0,0,1,-64,-64)">
                <g id="path4399" transform="matrix(1,0,0,1,0,-924.362)">
                    <circle cx="64" cy="988.362" r="46" style="fill:rgb(121,167,61);"/>
                </g>
                <g id="Layer-5" serif:id="Layer 5">
                    <path id="path4215-5" d="M36.9,53.703L39.963,55.504C43.475,45.614 52.93,38.5 64,38.5C65.601,38.5 67.165,38.655 68.686,38.94L68.57,35.379C67.059,35.132 65.531,35.006 64,35C51.987,35.005 41.166,42.473 36.9,53.703ZM36.943,74.344C41.218,85.541 52.014,92.985 64,93C65.553,92.988 67.102,92.852 68.633,92.592L68.66,89.065C67.148,89.346 65.592,89.5 64,89.5C52.921,89.5 43.461,82.375 39.955,72.473L36.943,74.344L36.943,74.344ZM45.219,69.205C47.487,77.462 55.002,83.5 64,83.5C65.627,83.5 67.198,83.282 68.707,82.91L68.734,79.266C67.202,79.747 65.606,79.994 64,80C56.454,79.991 49.89,74.646 48.354,67.258L45.219,69.205L45.219,69.205ZM45.264,58.617L48.41,60.465C50.055,53.206 56.557,48.007 64,48C65.701,48.004 67.39,48.279 69.004,48.815L68.885,45.137C67.322,44.736 65.692,44.5 64,44.5C55.066,44.5 47.59,50.451 45.264,58.617ZM74.643,75.922L77.918,77.674C81.371,74.16 83.5,69.34 83.5,64C83.5,58.725 81.419,53.962 78.041,50.459L74.852,52.27C78.125,55.291 79.992,59.546 80,64C79.993,68.553 78.042,72.893 74.643,75.922ZM83.342,80.578L86.504,82.27C90.7,77.107 92.995,70.653 93,64C92.993,57.325 90.682,50.853 86.459,45.684L83.359,47.441C87.182,51.902 89.5,57.687 89.5,64C89.5,70.323 87.175,76.115 83.342,80.578Z" style="fill:rgb(241,242,242);fill-rule:nonzero;"/>
                    <g id="path4171-4-2-5" transform="matrix(0,-0.605978,0.579075,0,35.7373,63.9235)">
                        <path d="M0.253,21.176L-9.013,5.565L-18.279,-10.046L-0.126,-10.265L18.026,-10.483L9.139,5.347L0.253,21.176Z" style="fill:rgb(241,242,242);fill-rule:nonzero;"/>
                    </g>
                    <g id="path4171-4-2-7-0" transform="matrix(0.524792,0.302989,-0.289537,0.501493,78.1976,39.5621)">
                        <path d="M0.253,21.176L-9.013,5.565L-18.279,-10.046L-0.126,-10.265L18.026,-10.483L9.139,5.347L0.253,21.176Z" style="fill:rgb(241,242,242);fill-rule:nonzero;"/>
                    </g>
                    <g id="path4171-4-2-0-4" transform="matrix(-0.524792,0.302989,-0.289537,-0.501493,78.0651,88.5145)">
                        <path d="M0.253,21.176L-9.013,5.565L-18.279,-10.046L-0.126,-10.265L18.026,-10.483L9.139,5.347L0.253,21.176Z" style="fill:rgb(241,242,242);fill-rule:nonzero;"/>
                    </g>
                </g>
            </g>
        </g>
    </g>
</svg>
