<?xml version="1.0" encoding="UTF-8" standalone="no"?>
<!DOCTYPE svg PUBLIC "-//W3C//DTD SVG 1.1//EN" "http://www.w3.org/Graphics/SVG/1.1/DTD/svg11.dtd">
<svg width="100%" height="100%" viewBox="0 0 48 48" version="1.1" xmlns="http://www.w3.org/2000/svg" xmlns:xlink="http://www.w3.org/1999/xlink" xml:space="preserve" xmlns:serif="http://www.serif.com/" style="fill-rule:evenodd;clip-rule:evenodd;stroke-linejoin:round;stroke-miterlimit:2;">
    <g transform="matrix(1,0,0,1,-2464,-1392)">
        <g transform="matrix(1,0,0,1,2488,1416)">
            <g transform="matrix(1,0,0,1,-24,-24)">
                <g id="Layer-1" serif:id="Layer 1" transform="matrix(1,0,0,1,0,-1004.36)">
                    <g id="rect4137" transform="matrix(1,0,0,1,0,1004.36)">
                        <path d="M15,15C14.446,15 14,15.446 14,16L14,32C14,32.554 14.446,33 15,33L33,33C33.554,33 34,32.554 34,32L34,16C34,15.446 33.554,15 33,15L15,15ZM20.494,21L27.506,21C27.78,21 28,21.192 28,21.432L28,26.568C28,26.808 27.78,27 27.506,27L26,27L26,27.703C26,27.814 25.912,27.902 25.801,27.902L22.199,27.902C22.088,27.902 22,27.814 22,27.703L22,27L20.494,27C20.22,27 20,26.808 20,26.568L20,21.432C20,21.192 20.22,21 20.494,21Z" style="fill:rgb(128,140,153);fill-rule:nonzero;"/>
                    </g>
                    <path id="rect4143" d="M29.067,1035.56C29.067,1035.45 28.977,1035.36 28.867,1035.36L19.267,1035.36C19.156,1035.36 19.067,1035.45 19.067,1035.56L19.067,1038.16C19.067,1038.27 19.156,1038.36 19.267,1038.36L28.867,1038.36C28.977,1038.36 29.067,1038.27 29.067,1038.16L29.067,1035.56Z" style="fill:rgb(128,140,153);"/>
                </g>
            </g>
        </g>
    </g>
</svg>
