<?xml version="1.0" encoding="UTF-8" standalone="no"?>
<!DOCTYPE svg PUBLIC "-//W3C//DTD SVG 1.1//EN" "http://www.w3.org/Graphics/SVG/1.1/DTD/svg11.dtd">
<svg width="100%" height="100%" viewBox="0 0 48 48" version="1.1" xmlns="http://www.w3.org/2000/svg" xmlns:xlink="http://www.w3.org/1999/xlink" xml:space="preserve" xmlns:serif="http://www.serif.com/" style="fill-rule:evenodd;clip-rule:evenodd;stroke-linejoin:round;stroke-miterlimit:2;">
    <g transform="matrix(1,0,0,1,-2512,-1344)">
        <g transform="matrix(1,0,0,1,2536,1368)">
            <g transform="matrix(1,0,0,1,-24,-24)">
                <g id="Layer-2" serif:id="Layer 2">
                    <path id="path4135" d="M13,24C13,17.966 17.966,13 24,13C30.034,13 35,17.966 35,24C35,30.034 30.034,35 24,35C21.085,34.997 18.287,33.836 16.227,31.773L19.053,28.947C20.364,30.26 22.145,30.999 24,31C27.84,31 31,27.84 31,24C31,20.16 27.84,17 24,17C20.16,17 17,20.16 17,24L13,24Z" style="fill:rgb(128,140,153);fill-rule:nonzero;"/>
                    <g id="path4161" transform="matrix(0,1,1,0,0,0)">
                        <path d="M31.5,15L24,19.33L24,10.67L31.5,15Z" style="fill:rgb(128,140,153);fill-rule:nonzero;"/>
                    </g>
                    <path id="rect4169" d="M25,19.5C25,19.224 24.776,19 24.5,19L23.5,19C23.224,19 23,19.224 23,19.5L23,24.5C23,24.776 23.224,25 23.5,25L24.5,25C24.776,25 25,24.776 25,24.5L25,19.5Z" style="fill:rgb(128,140,153);"/>
                    <path id="rect4171" d="M27,23.5C27,23.224 26.776,23 26.5,23L23.5,23C23.224,23 23,23.224 23,23.5L23,24.5C23,24.776 23.224,25 23.5,25L26.5,25C26.776,25 27,24.776 27,24.5L27,23.5Z" style="fill:rgb(128,140,153);"/>
                </g>
            </g>
        </g>
    </g>
</svg>
