<?xml version="1.0" encoding="UTF-8" standalone="no"?>
<!DOCTYPE svg PUBLIC "-//W3C//DTD SVG 1.1//EN" "http://www.w3.org/Graphics/SVG/1.1/DTD/svg11.dtd">
<svg width="100%" height="100%" viewBox="0 0 32 32" version="1.1" xmlns="http://www.w3.org/2000/svg" xmlns:xlink="http://www.w3.org/1999/xlink" xml:space="preserve" xmlns:serif="http://www.serif.com/" style="fill-rule:evenodd;clip-rule:evenodd;stroke-linecap:round;">
    <g transform="matrix(1,0,0,1,-2272,-1216)">
        <g transform="matrix(1,0,0,1,2288,1232)">
            <g transform="matrix(1,0,0,1,-16,-16)">
                <circle id="path4140" cx="20" cy="20" r="10" style="fill:rgb(128,140,153);"/>
                <path id="path4233" d="M18.264,10.152C13.652,10.968 10.2,14.919 10.013,19.599L11.268,20.12L11.495,19.707L12.954,21.618L14.699,21.759L16.137,22.703L15.761,23.965L16.204,24.785L17.292,25.864L17.255,26.918L16.972,27.865L16.95,29.517C17.297,29.627 17.65,29.718 18.008,29.79L18.636,28.395L19.55,27.636L19.593,27.03L20.323,26.078L21.104,25.416L21.218,24.798L21.526,23.995L21.411,23.343L21.001,23.565L19.738,23.19L19.371,22.805L17.887,22.019L15.646,22.04L14.512,21.118L13.845,21.161L13.514,20.547L13.653,20.073L14.815,19.868L15.498,20.346L15.258,19.416L15.669,19.195L16.108,18.295L16.603,18.131L16.804,17.574L17.297,17.411L17.051,16.856L17.96,16.92L18.476,16.456L17.709,15.919L16.949,15.005L16.395,15.253L15.46,15.042L15.796,16.105L15.306,16.716L14.564,16.323L13.714,16.173L13.245,15.208L13.407,14.433L14.082,14.014L14.599,13.55L13.906,13.447L13.741,13.775L13.361,13.319L14.022,12.829L14.496,12.97L14.419,12.534L14.91,11.923L15.365,11.544L16.079,11.344L16.433,11.655L17.206,11.37L18.712,13.124L18.255,13.504L18.869,14.441L19.62,14.459L19.748,13.913L20.349,13.508L20.811,13.575L20.866,13.043L21.89,12.487L21.847,11.822L22.109,11.178C22.109,11.178 22.195,10.805 22.275,10.264C20.959,9.956 19.594,9.918 18.264,10.152L18.264,10.152ZM26.511,14.515L25.82,15.685L24.914,16.068L24.898,16.819L23.989,16.755L24.241,17.758L24.944,17.933L25.085,17.459L26.105,16.456L27.01,17.344L27.137,16.798L28.209,17.358L28.785,16.807L29.449,16.741C29.158,15.905 28.758,15.111 28.258,14.381L27.62,15.291L26.511,14.515L26.511,14.515ZM26.566,17.796L25.709,18.023L24.513,18.457L24.376,19.379L23.579,19.519L23.407,20.672L24.095,21.598L25.264,22.29L25.806,21.969L26.761,21.875L26.684,22.712L27.479,23.395L27.355,24.388L27.968,26.029C29.646,23.815 30.327,20.999 29.848,18.264C29.819,18.108 29.786,17.953 29.75,17.798L28.571,18.565L27.603,18.587L26.566,17.796L26.566,17.796Z" style="fill:rgb(237,237,235);"/>
                <circle id="path4141" cx="20" cy="20" r="9.5" style="fill:none;stroke:rgb(128,140,153);stroke-width:1px;"/>
            </g>
        </g>
    </g>
</svg>
